{
  "name" : "Wikipedia",
  "repository" : "https://gitlab.com/DANBER/Snips-Wikipedia.git",
  "changelog" : "Leerzeichen buchstabierbar",
  "description" : "Frage mit diesem Skill Informationen bei Wikipedia ab. \n\nWenn Snips das gesuchte Wort nicht kennt, kannst du es buchstabieren. \nWikipedia darf nun auch länger brauchen, es sollte also nicht mehr zu Timeouts kommen.\n\nFür Entwickler und die, die es werden wollen, was es hier zu lernen gibt:\n- Interaktionen mit Nutzern\n- Buchstabieren von Wörtern durch Nutzer\n- Anfragen an Webservice\n- Verzögerte Antworten\nKomplexität: mittel\n\nhttps://gitlab.com/DANBER/Snips-Wikipedia",
  "skillType" : "GITHUB",
  "intents" : [ {
    "id" : "intent_4qynPbnpe7m"
  }, {
    "id" : "intent_zMmwXl3mnlQ"
  } ],
  "id" : "skill_B9mdnOWZoOd",
  "language" : "de",
  "imageUrl" : "https://console.snips.ai/images/bundles/bundle-monitor.svg",
  "parameters" : [ ],
  "copiedFrom" : "skill_OVx8a5KbVQMv"
}